Casestudy1
…
#################################################################################################################
### Questions

# Q1 How many breweries are present in each state?
# As clearly shown below colorado leads with 47 breweries followed by california at 39 and rest others in deceding order of the brewery count 
breweries %>% count(breweries$State) -> breweries.state

# Rename dataframe column names and display results sorted desc( by Brewery count)
names(breweries.state) <- c("State", "BreweriesCount")
breweries.state[order(-breweries.state$BreweriesCount),]

## # A tibble: 51 x 2
##    State BreweriesCount
##    <fct>          <int>
##  1 " CO"             47
##  2 " CA"             39
##  3 " MI"             32
##  4 " OR"             29
##  5 " TX"             28
##  6 " PA"             25
##  7 " MA"             23
##  8 " WA"             23
##  9 " IN"             22
## 10 " WI"             20
## # ... with 41 more rows
…
